{
  "page": 1,
  "results": [
    {
      "adult": false,
      "backdrop_path": "/pm0RiwNpSja8gR0BTWpxo5a9Bbl.jpg",
      "genre_ids": [12, 14, 28],
      "id": 122,
      "original_language": "en",
      "original_title": "The Lord of the Rings: The Return of the King",
      "overview": "Aragorn is revealed as the heir to the ancient kings as he, Gandalf and the other members of the broken fellowship struggle to save Gondor from Sauron's forces. Meanwhile, Frodo and Sam take the ring closer to the heart of Mordor, the dark lord's realm.",
      "popularity": 69.351,
      "poster_path": "/rCzpDGLbOoPwLjy3OAm5NUPOTrC.jpg",
      "release_date": "2004-01-14",
      "title": "The Lord of the Rings: The Return of the King",
      "video": false,
      "vote_average": 8.5,
      "vote_count": 18002
    },
    {
      "adult": false,
      "backdrop_path": "/pcDc2WJAYGJTTvRSEIpRZwM3Ola.jpg",
      "genre_ids": [28, 12, 14, 878],
      "id": 791373,
      "original_language": "en",
      "original_title": "Zack Snyder's Justice League",
      "overview": "Determined to ensure Superman's ultimate sacrifice was not in vain, Bruce Wayne aligns forces with Diana Prince with plans to recruit a team of metahumans to protect the world from an approaching threat of catastrophic proportions.",
      "popularity": 742.401,
      "poster_path": "/tnAuB8q5vv7Ax9UAEje5Xi4BXik.jpg",
      "release_date": "2021-03-18",
      "title": "Zack Snyder's Justice League",
      "video": false,
      "vote_average": 8.4,
      "vote_count": 6168
    },
    {
      "adult": false,
      "backdrop_path": "/xPpXYnCWfjkt3zzE0dpCNME1pXF.jpg",
      "genre_ids": [16, 28, 12, 14],
      "id": 635302,
      "original_language": "ja",
      "original_title": "劇場版「鬼滅の刃」無限列車編",
      "overview": "Tanjirō Kamado, joined with Inosuke Hashibira, a boy raised by boars who wears a boar's head, and Zenitsu Agatsuma, a scared boy who reveals his true power when he sleeps, boards the Infinity Train on a new mission with the Fire Hashira, Kyōjurō Rengoku, to defeat a demon who has been tormenting the people and killing the demon slayers who oppose it!",
      "popularity": 885.572,
      "poster_path": "/h8Rb9gBr48ODIwYUttZNYeMWeUU.jpg",
      "release_date": "2021-01-06",
      "title": "Demon Slayer -Kimetsu no Yaiba- The Movie: Mugen Train",
      "video": false,
      "vote_average": 8.4,
      "vote_count": 1444
    },
    {
      "adult": false,
      "backdrop_path": "/vRQnzOn4HjIMX4LBq9nHhFXbsSu.jpg",
      "genre_ids": [12, 14, 28],
      "id": 120,
      "original_language": "en",
      "original_title": "The Lord of the Rings: The Fellowship of the Ring",
      "overview": "Young hobbit Frodo Baggins, after inheriting a mysterious ring from his uncle Bilbo, must leave his home in order to keep it from falling into the hands of its evil creator. Along the way, a fellowship is formed to protect the ringbearer and make sure that the ring arrives at its final destination: Mt. Doom, the only place where it can be destroyed.",
      "popularity": 80.295,
      "poster_path": "/6oom5QYQ2yQTMJIbnvbkBL9cHo6.jpg",
      "release_date": "2002-02-06",
      "title": "The Lord of the Rings: The Fellowship of the Ring",
      "video": false,
      "vote_average": 8.4,
      "vote_count": 19446
    },
    {
      "adult": false,
      "backdrop_path": "/ii8QGacT3MXESqBckQlyrATY0lT.jpg",
      "genre_ids": [28, 878, 12],
      "id": 27205,
      "original_language": "en",
      "original_title": "Inception",
      "overview": "Cobb, a skilled thief who commits corporate espionage by infiltrating the subconscious of his targets is offered a chance to regain his old life as payment for a task considered to be impossible: \"inception\", the implantation of another person's idea into a target's subconscious.",
      "popularity": 56.376,
      "poster_path": "/9gk7adHYeDvHkCSEqAvQNLV5Uge.jpg",
      "release_date": "2010-07-16",
      "title": "Inception",
      "video": false,
      "vote_average": 8.3,
      "vote_count": 29537
    },
    {
      "adult": false,
      "backdrop_path": "/rAiYTfKGqDCRIIqo664sY9XZIvQ.jpg",
      "genre_ids": [12, 18, 878],
      "id": 157336,
      "original_language": "en",
      "original_title": "Interstellar",
      "overview": "The adventures of a group of explorers who make use of a newly discovered wormhole to surpass the limitations on human space travel and conquer the vast distances involved in an interstellar voyage.",
      "popularity": 116.901,
      "poster_path": "/gEU2QniE6E77NI6lCU6MxlNBvIx.jpg",
      "release_date": "2014-11-06",
      "title": "Interstellar",
      "video": false,
      "vote_average": 8.3,
      "vote_count": 26325
    },
    {
      "adult": false,
      "backdrop_path": "/7RyHsO4yDXtBv1zUU3mTpHeQ0d5.jpg",
      "genre_ids": [12, 878, 28],
      "id": 299534,
      "original_language": "en",
      "original_title": "Avengers: Endgame",
      "overview": "After the devastating events of Avengers: Infinity War, the universe is in ruins due to the efforts of the Mad Titan, Thanos. With the help of remaining allies, the Avengers must assemble once more in order to undo Thanos' actions and restore order to the universe once and for all, no matter what consequences may be in store.",
      "popularity": 272.805,
      "poster_path": "/or06FN3Dka5tukK1e9sl16pB3iy.jpg",
      "release_date": "2019-04-24",
      "title": "Avengers: Endgame",
      "video": false,
      "vote_average": 8.3,
      "vote_count": 18712
    },
    {
      "adult": false,
      "backdrop_path": "/wXsQvli6tWqja51pYxXNG1LFIGV.jpg",
      "genre_ids": [10751, 16, 18],
      "id": 8587,
      "original_language": "en",
      "original_title": "The Lion King",
      "overview": "A young lion prince is cast out of his pride by his cruel uncle, who claims he killed his father. While the uncle rules with an iron paw, the prince grows up beyond the Savannah, living by a philosophy: No worries for the rest of your days. But when his past comes to haunt him, the young prince must decide his fate: Will he remain an outcast or face his demons and become what he needs to be?",
      "popularity": 137.863,
      "poster_path": "/sKCr78MXSLixwmZ8DyJLrpMsd15.jpg",
      "release_date": "1994-10-10",
      "title": "The Lion King",
      "video": false,
      "vote_average": 8.3,
      "vote_count": 14240
    },
    {
      "adult": false,
      "backdrop_path": "/kf456ZqeC45XTvo6W9pW5clYKfQ.jpg",
      "genre_ids": [10751, 16, 10402, 35, 14],
      "id": 508442,
      "original_language": "en",
      "original_title": "Soul",
      "overview": "Joe Gardner is a middle school teacher with a love for jazz music. After a successful gig at the Half Note Club, he suddenly gets into an accident that separates his soul from his body and is transported to the You Seminar, a center in which souls develop and gain passions before being transported to a newborn child. Joe must enlist help from the other souls-in-training, like 22, a soul who has spent eons in the You Seminar, in order to get back to Earth.",
      "popularity": 442.459,
      "poster_path": "/hm58Jw4Lw8OIeECIq5qyPYhAeRJ.jpg",
      "release_date": "2020-12-25",
      "title": "Soul",
      "video": false,
      "vote_average": 8.2,
      "vote_count": 6600
    },
    {
      "adult": false,
      "backdrop_path": "/zqkmTXzjkAgXmEWLRsY4UpTWCeo.jpg",
      "genre_ids": [12, 28, 878],
      "id": 11,
      "original_language": "en",
      "original_title": "Star Wars",
      "overview": "Princess Leia is captured and held hostage by the evil Imperial forces in their effort to take over the galactic Empire. Venturesome Luke Skywalker and dashing captain Han Solo team together with the loveable robot duo R2-D2 and C-3PO to rescue the beautiful princess and restore peace and justice in the Empire.",
      "popularity": 50.242,
      "poster_path": "/6FfCtAuVAW8XJjZ7eWeLibRLWTw.jpg",
      "release_date": "1997-06-17",
      "title": "Star Wars",
      "video": false,
      "vote_average": 8.2,
      "vote_count": 15803
    },
    {
      "adult": false,
      "backdrop_path": "/mfJepkInUbiZ0mFXFhDNz8ko6Zr.jpg",
      "genre_ids": [18, 9648, 53],
      "id": 1124,
      "original_language": "en",
      "original_title": "The Prestige",
      "overview": "A mysterious story of two magicians whose intense rivalry leads them on a life-long battle for supremacy -- full of obsession, deceit and jealousy with dangerous and deadly consequences.",
      "popularity": 27.56,
      "poster_path": "/gcphM7ZLxS5HPeCZgjZobfz907x.jpg",
      "release_date": "2006-11-08",
      "title": "The Prestige",
      "video": false,
      "vote_average": 8.2,
      "vote_count": 11945
    },
    {
      "adult": false,
      "backdrop_path": "/hjQp148VjWF4KjzhsD90OCMr11h.jpg",
      "genre_ids": [18, 36, 10752],
      "id": 857,
      "original_language": "en",
      "original_title": "Saving Private Ryan",
      "overview": "As U.S. troops storm the beaches of Normandy, three brothers lie dead on the battlefield, with a fourth trapped behind enemy lines. Ranger captain John Miller and seven men are tasked with penetrating German-held territory and bringing the boy home.",
      "popularity": 47.7,
      "poster_path": "/1wY4psJ5NVEhCuOYROwLH2XExM2.jpg",
      "release_date": "1998-12-05",
      "title": "Saving Private Ryan",
      "video": false,
      "vote_average": 8.2,
      "vote_count": 11961
    },
    {
      "adult": false,
      "backdrop_path": "/n6bUvigpRFqSwmPp1m2YADdbRBc.jpg",
      "genre_ids": [80, 53, 18],
      "id": 475557,
      "original_language": "en",
      "original_title": "Joker",
      "overview": "During the 1980s, a failed stand-up comedian is driven insane and turns to a life of crime and chaos in Gotham City while becoming an infamous psychopathic crime figure.",
      "popularity": 406.578,
      "poster_path": "/udDclJoHjfjb8Ekgsd4FDteOkCU.jpg",
      "release_date": "2019-10-02",
      "title": "Joker",
      "video": false,
      "vote_average": 8.2,
      "vote_count": 18214
    },
    {
      "adult": false,
      "backdrop_path": "/fNG7i7RqMErkcqhohV2a6cV1Ehy.jpg",
      "genre_ids": [28, 878],
      "id": 603,
      "original_language": "en",
      "original_title": "The Matrix",
      "overview": "Set in the 22nd century, The Matrix tells the story of a computer hacker who joins a group of underground insurgents fighting the vast and powerful computers who now rule the earth.",
      "popularity": 53.782,
      "poster_path": "/f89U3ADr1oiB1s9GkdPOEpXUk5H.jpg",
      "release_date": "1999-07-03",
      "title": "The Matrix",
      "video": false,
      "vote_average": 8.2,
      "vote_count": 19552
    },
    {
      "adult": false,
      "backdrop_path": "/hJuDvwzS0SPlsE6MNFOpznQltDZ.jpg",
      "genre_ids": [10751, 14, 16, 28, 12],
      "id": 527774,
      "original_language": "en",
      "original_title": "Raya and the Last Dragon",
      "overview": "Long ago, in the fantasy world of Kumandra, humans and dragons lived together in harmony. But when an evil force threatened the land, the dragons sacrificed themselves to save humanity. Now, 500 years later, that same evil has returned and it’s up to a lone warrior, Raya, to track down the legendary last dragon to restore the fractured land and its divided people.",
      "popularity": 623.087,
      "poster_path": "/lPsD10PP4rgUGiGR4CCXA6iY0QQ.jpg",
      "release_date": "2021-03-03",
      "title": "Raya and the Last Dragon",
      "video": false,
      "vote_average": 8.1,
      "vote_count": 3961
    },
    {
      "adult": false,
      "backdrop_path": "/6ydGnzbo8s4yRNqQWPAvVSiNU8N.jpg",
      "genre_ids": [16, 12, 35, 10751, 878, 28],
      "id": 501929,
      "original_language": "en",
      "original_title": "The Mitchells vs. the Machines",
      "overview": "A quirky, dysfunctional family's road trip is upended when they find themselves in the middle of the robot apocalypse and suddenly become humanity's unlikeliest last hope.",
      "popularity": 66.253,
      "poster_path": "/mI2Di7HmskQQ34kz0iau6J1vr70.jpg",
      "release_date": "2021-04-30",
      "title": "The Mitchells vs. the Machines",
      "video": false,
      "vote_average": 8,
      "vote_count": 1177
    },
    {
      "adult": false,
      "backdrop_path": "/ai2FicMUxLCurVkjtYdSvVDWRmS.jpg",
      "genre_ids": [16, 10751, 878],
      "id": 10681,
      "original_language": "en",
      "original_title": "WALL·E",
      "overview": "WALL·E is the last robot left on an Earth that has been overrun with garbage and all humans have fled to outer space. For 700 years he has continued to try and clean up the mess, but has developed some rather interesting human-like qualities. When a ship arrives with a sleek new type of robot, WALL·E thinks he's finally found a friend and stows away on the ship when it leaves.",
      "popularity": 60.254,
      "poster_path": "/Agc6lw8pb6BIGVeguvdjDT0p9Mb.jpg",
      "release_date": "2008-08-13",
      "title": "WALL·E",
      "video": false,
      "vote_average": 8,
      "vote_count": 14601
    },
    {
      "adult": false,
      "backdrop_path": "/zspBhrrZ0p9KZl74qg4hkN0MUGA.jpg",
      "genre_ids": [18, 53, 80],
      "id": 146233,
      "original_language": "en",
      "original_title": "Prisoners",
      "overview": "Keller Dover faces a parent's worst nightmare when his 6-year-old daughter, Anna, and her friend go missing. The only lead is an old motorhome that had been parked on their street. The head of the investigation, Detective Loki, arrests the driver, but a lack of evidence forces Loki to release his only suspect. Dover, knowing that his daughter's life is at stake, decides that he has no choice but to take matters into his own hands.",
      "popularity": 27.412,
      "poster_path": "/tuZhZ6biFMr5n9YSVuHOJnNL1uU.jpg",
      "release_date": "2013-10-08",
      "title": "Prisoners",
      "video": false,
      "vote_average": 8,
      "vote_count": 8279
    },
    {
      "adult": false,
      "backdrop_path": "/ve4TEHHmJdnEKVWSYlRa3DdoeKz.jpg",
      "genre_ids": [12, 14],
      "id": 673,
      "original_language": "en",
      "original_title": "Harry Potter and the Prisoner of Azkaban",
      "overview": "Year three at Hogwarts means new fun and challenges as Harry learns the delicate art of approaching a Hippogriff, transforming shape-shifting Boggarts into hilarity and even turning back time. But the term also brings danger: soul-sucking Dementors hover over the school, an ally of the accursed He-Who-Cannot-Be-Named lurks within the castle walls, and fearsome wizard Sirius Black escapes Azkaban. And Harry will confront them all.",
      "popularity": 180.457,
      "poster_path": "/aWxwnYoe8p2d2fcxOqtvAtJ72Rw.jpg",
      "release_date": "2004-06-16",
      "title": "Harry Potter and the Prisoner of Azkaban",
      "video": false,
      "vote_average": 8,
      "vote_count": 16477
    },
    {
      "adult": false,
      "backdrop_path": "/inJjDhCjfhh3RtrJWBmmDqeuSYC.jpg",
      "genre_ids": [28, 12, 14],
      "id": 399566,
      "original_language": "en",
      "original_title": "Godzilla vs. Kong",
      "overview": "In a time when monsters walk the Earth, humanity’s fight for its future sets Godzilla and Kong on a collision course that will see the two most powerful forces of nature on the planet collide in a spectacular battle for the ages.",
      "popularity": 992.262,
      "poster_path": "/pgqgaUx1cJb5oZQQ5v0tNARCeBp.jpg",
      "release_date": "2021-03-24",
      "title": "Godzilla vs. Kong",
      "video": false,
      "vote_average": 8,
      "vote_count": 6564
    }
  ],
  "total_pages": 20,
  "total_results": 385
}
