{
  "page": 1,
  "results": [
    {
      "known_for_department": "Acting",
      "name": "Dwayne Johnson",
      "profile_path": "/cgoy7t5Ve075naBPcewZrc08qGw.jpg",
      "adult": false,
      "id": 18918,
      "known_for": [
        {
          "overview": "The tables are turned as four teenagers are sucked into Jumanji's world - pitted against rhinos, black mambas and an endless variety of jungle traps and puzzles. To survive, they'll play as characters from the game.",
          "release_date": "2017-12-09",
          "popularity": 84.5,
          "adult": false,
          "backdrop_path": "/zJDMuXQDraHjtF53wikmyBQIcYe.jpg",
          "media_type": "movie",
          "genre_ids": [28.0, 12.0, 35.0, 14.0],
          "vote_average": 6.8,
          "original_language": "en",
          "original_title": "Jumanji: Welcome to the Jungle",
          "poster_path": "/pSgXKPU5h6U89ipF7HBYajvYt7j.jpg",
          "video": false,
          "id": 353486.0,
          "title": "Jumanji: Welcome to the Jungle",
          "vote_count": 10866.0
        },
        {
          "vote_count": 9671.0,
          "release_date": "2016-11-23",
          "popularity": 23.904,
          "adult": false,
          "backdrop_path": "/oWU6dgu3RgdSZElkhbZuoPtkWAJ.jpg",
          "media_type": "movie",
          "genre_ids": [12.0, 35.0, 10751.0, 16.0],
          "overview": "In Ancient Polynesia, when a terrible curse incurred by Maui reaches an impetuous Chieftain's daughter's island, she answers the Ocean's call to seek out the demigod to set things right.",
          "original_language": "en",
          "original_title": "Moana",
          "poster_path": "/4JeejGugONWpJkbnvL12hVoYEDa.jpg",
          "title": "Moana",
          "id": 277834.0,
          "vote_average": 7.6,
          "video": false
        },
        {
          "overview": "Hobbs has Dominic and Brian reassemble their crew to take down a team of mercenaries: Dominic unexpectedly gets convoluted also facing his presumed deceased girlfriend, Letty.",
          "release_date": "2013-05-21",
          "popularity": 12.766,
          "adult": false,
          "backdrop_path": "/mRfI3y2oAd7ejur2di09xC9niqp.jpg",
          "media_type": "movie",
          "genre_ids": [28.0, 53.0, 80.0],
          "vote_count": 8794.0,
          "original_language": "en",
          "original_title": "Fast & Furious 6",
          "poster_path": "/n31VRDodbaZxkrZmmzyYSFNVpW5.jpg",
          "vote_average": 6.8,
          "id": 82992.0,
          "title": "Fast & Furious 6",
          "video": false
        }
      ],
      "gender": 2,
      "popularity": 66.067,
      "media_type": "person"
    },
    {
      "adult": false,
      "name": "Jason Statham",
      "profile_path": "/lldeQ91GwIVff43JBrpdbAAeYWj.jpg",
      "known_for": [
        {
          "video": false,
          "vote_average": 6.8,
          "popularity": 12.766,
          "overview": "Hobbs has Dominic and Brian reassemble their crew to take down a team of mercenaries: Dominic unexpectedly gets convoluted also facing his presumed deceased girlfriend, Letty.",
          "release_date": "2013-05-21",
          "title": "Fast & Furious 6",
          "vote_count": 8794.0,
          "adult": false,
          "backdrop_path": "/mRfI3y2oAd7ejur2di09xC9niqp.jpg",
          "media_type": "movie",
          "genre_ids": [28.0, 53.0, 80.0],
          "id": 82992.0,
          "original_language": "en",
          "original_title": "Fast & Furious 6",
          "poster_path": "/n31VRDodbaZxkrZmmzyYSFNVpW5.jpg"
        },
        {
          "video": false,
          "vote_average": 7.3,
          "popularity": 130.873,
          "vote_count": 8555.0,
          "release_date": "2015-04-01",
          "overview": "Deckard Shaw seeks revenge against Dominic Toretto and his family for his comatose brother.",
          "title": "Furious 7",
          "adult": false,
          "backdrop_path": "/cHkhb5A4gQRK6zs6Pv7zorHs8Nk.jpg",
          "media_type": "movie",
          "genre_ids": [28.0, 53.0, 80.0, 18.0],
          "id": 168259.0,
          "original_language": "en",
          "original_title": "Furious 7",
          "poster_path": "/wurKlC3VKUgcfsn0K51MJYEleS2.jpg"
        },
        {
          "video": false,
          "vote_average": 6.9,
          "popularity": 206.04,
          "overview": "When a mysterious woman seduces Dom into the world of crime and a betrayal of those closest to him, the crew face trials that will test them as never before.",
          "release_date": "2017-04-12",
          "id": 337339.0,
          "title": "The Fate of the Furious",
          "adult": false,
          "backdrop_path": "/jzdnhRhG0dsuYorwvSqPqqnM1cV.jpg",
          "media_type": "movie",
          "genre_ids": [28.0, 80.0, 53.0],
          "vote_count": 8407.0,
          "original_language": "en",
          "original_title": "The Fate of the Furious",
          "poster_path": "/dImWM7GJqryWJO9LHa3XQ8DD5NH.jpg"
        }
      ],
      "id": 976,
      "gender": 2,
      "known_for_department": "Acting",
      "popularity": 43.232,
      "media_type": "person"
    },
    {
      "id": 2963,
      "profile_path": "/ar33qcWbEgREn07ZpXv5Pbj8hbM.jpg",
      "adult": false,
      "name": "Nicolas Cage",
      "known_for": [
        {
          "original_language": "en",
          "original_title": "Spider-Man: Into the Spider-Verse",
          "poster_path": "/iiZZdoQBEYBv6id8su7ImL0oCbD.jpg",
          "video": false,
          "vote_average": 8.4,
          "title": "Spider-Man: Into the Spider-Verse",
          "vote_count": 9668.0,
          "release_date": "2018-12-06",
          "popularity": 110.627,
          "overview": "Miles Morales is juggling his life between being a high school student and being a spider-man. When Wilson \"Kingpin\" Fisk uses a super collider, others from across the Spider-Verse are transported to this dimension.",
          "adult": false,
          "backdrop_path": "/6qVF0gnLnbKCgcMfCpCB8GH7B5I.jpg",
          "media_type": "movie",
          "genre_ids": [28.0, 12.0, 16.0, 878.0, 35.0],
          "id": 324857.0
        },
        {
          "original_language": "en",
          "original_title": "Kick-Ass",
          "poster_path": "/GPiMXaDC2NdDIldLgtijHFTeKH.jpg",
          "video": false,
          "vote_average": 7.1,
          "id": 23483.0,
          "vote_count": 9488.0,
          "release_date": "2010-03-22",
          "popularity": 36.042,
          "overview": "Dave Lizewski is an unnoticed high school student and comic book fan who one day decides to become a super-hero, even though he has no powers, training or meaningful reason to do so.",
          "adult": false,
          "backdrop_path": "/dNtVnKSZScSnmFYBco0tgB2k6HC.jpg",
          "media_type": "movie",
          "genre_ids": [28.0, 80.0],
          "title": "Kick-Ass"
        },
        {
          "original_language": "en",
          "original_title": "The Croods",
          "poster_path": "/27zvjVOtOi5ped1HSlJKNsKXkFH.jpg",
          "video": false,
          "vote_average": 6.9,
          "title": "The Croods",
          "vote_count": 5508.0,
          "release_date": "2013-03-15",
          "popularity": 96.558,
          "overview": "The prehistoric Croods family live in a particularly dangerous moment in time. Patriarch Grug, his mate Ugga, teenage daughter Eep, son Thunk, and feisty Gran gather food by day and huddle together in a cave at night. When a more evolved caveman named Guy arrives on the scene, Grug is distrustful, but it soon becomes apparent that Guy is correct about the impending destruction of their world.",
          "adult": false,
          "backdrop_path": "/7JCYI5Xrgt21fEQXIZ2ZFCRhyqK.jpg",
          "media_type": "movie",
          "genre_ids": [16.0, 12.0, 10751.0, 14.0, 35.0, 28.0],
          "id": 49519.0
        }
      ],
      "gender": 2,
      "known_for_department": "Acting",
      "popularity": 19.254,
      "media_type": "person"
    },
    {
      "adult": false,
      "gender": 2,
      "name": "Christopher Nolan",
      "id": 525,
      "known_for": [
        {
          "id": 27205,
          "video": false,
          "vote_average": 8.3,
          "overview": "Cobb, a skilled thief who commits corporate espionage by infiltrating the subconscious of his targets is offered a chance to regain his old life as payment for a task considered to be impossible: \"inception\", the implantation of another person's idea into a target's subconscious.",
          "release_date": "2010-07-15",
          "title": "Inception",
          "adult": false,
          "backdrop_path": "/ii8QGacT3MXESqBckQlyrATY0lT.jpg",
          "genre_ids": [28, 878, 12],
          "vote_count": 29517,
          "original_language": "en",
          "original_title": "Inception",
          "poster_path": "/9gk7adHYeDvHkCSEqAvQNLV5Uge.jpg",
          "popularity": 46.099,
          "media_type": "movie"
        },
        {
          "id": 157336,
          "adult": false,
          "backdrop_path": "/rAiYTfKGqDCRIIqo664sY9XZIvQ.jpg",
          "title": "Interstellar",
          "genre_ids": [12, 18, 878],
          "original_language": "en",
          "original_title": "Interstellar",
          "poster_path": "/gEU2QniE6E77NI6lCU6MxlNBvIx.jpg",
          "video": false,
          "vote_average": 8.3,
          "vote_count": 26297,
          "overview": "The adventures of a group of explorers who make use of a newly discovered wormhole to surpass the limitations on human space travel and conquer the vast distances involved in an interstellar voyage.",
          "release_date": "2014-11-05",
          "popularity": 117.839,
          "media_type": "movie"
        },
        {
          "original_title": "The Dark Knight",
          "poster_path": "/qJ2tW6WMUDux911r6m7haRef0WH.jpg",
          "video": false,
          "overview": "Batman raises the stakes in his war on crime. With the help of Lt. Jim Gordon and District Attorney Harvey Dent, Batman sets out to dismantle the remaining criminal organizations that plague the streets. The partnership proves to be effective, but they soon find themselves prey to a reign of chaos unleashed by a rising criminal mastermind known to the terrified citizens of Gotham as the Joker.",
          "release_date": "2008-07-16",
          "vote_count": 25523,
          "adult": false,
          "vote_average": 8.5,
          "backdrop_path": "/nMKdUUepR0i5zn0y1T4CsSB5chy.jpg",
          "title": "The Dark Knight",
          "genre_ids": [18, 28, 80, 53],
          "id": 155,
          "original_language": "en",
          "popularity": 48.425,
          "media_type": "movie"
        }
      ],
      "known_for_department": "Directing",
      "profile_path": "/xuAIuYSmsUzKlUMBFGVZaWsY3DZ.jpg",
      "popularity": 9.603,
      "media_type": "person"
    },
    {
      "name": "Tom Hanks",
      "adult": false,
      "gender": 2,
      "id": 31,
      "known_for_department": "Acting",
      "profile_path": "/xndWFsBlClOJFRdhSt4NBwiPq2o.jpg",
      "known_for": [
        {
          "original_title": "Forrest Gump",
          "poster_path": "/h5J4W4veyxMXDMjeNxZI46TsHOb.jpg",
          "video": false,
          "id": 13.0,
          "media_type": "movie",
          "overview": "A man with a low IQ has accomplished great things in his life and been present during significant historic events—in each case, far exceeding what anyone imagined he could do. But despite all he has achieved, his one true love eludes him.",
          "release_date": "1994-07-06",
          "popularity": 46.067,
          "vote_count": 20949.0,
          "adult": false,
          "backdrop_path": "/tlEFuIlaxRPXIYVHXbOSAMCfWqk.jpg",
          "title": "Forrest Gump",
          "genre_ids": [35.0, 18.0, 10749.0],
          "vote_average": 8.5,
          "original_language": "en"
        },
        {
          "original_title": "Toy Story",
          "poster_path": "/uXDfjJbdP4ijW5hWSBrPrlKpxab.jpg",
          "video": false,
          "id": 862.0,
          "media_type": "movie",
          "vote_count": 14267.0,
          "release_date": "1995-10-30",
          "popularity": 130.552,
          "overview": "Led by Woody, Andy's toys live happily in his room until Andy's birthday brings Buzz Lightyear onto the scene. Afraid of losing his place in Andy's heart, Woody plots against Buzz. But when circumstances separate Buzz and Woody from their owner, the duo eventually learns to put aside their differences.",
          "adult": false,
          "backdrop_path": "/3Rfvhy1Nl6sSGJwyjb0QiZzZYlB.jpg",
          "title": "Toy Story",
          "genre_ids": [16.0, 12.0, 10751.0, 35.0],
          "vote_average": 7.9,
          "original_language": "en"
        },
        {
          "original_title": "The Green Mile",
          "poster_path": "/velWPhVMQeQKcxggNEU8YmIo52R.jpg",
          "video": false,
          "vote_average": 8.5,
          "media_type": "movie",
          "vote_count": 12541.0,
          "release_date": "1999-12-10",
          "popularity": 54.94,
          "id": 497.0,
          "adult": false,
          "backdrop_path": "/5Nz25DPXfQaSpDgce42Y3kFg9G4.jpg",
          "title": "The Green Mile",
          "genre_ids": [14.0, 18.0, 80.0],
          "overview": "A supernatural tale set on death row in a Southern prison, where gentle giant John Coffey possesses the mysterious power to heal people's ailments. When the cell block's head guard, Paul Edgecomb, recognizes Coffey's miraculous gift, he tries desperately to help stave off the condemned man's execution.",
          "original_language": "en"
        }
      ],
      "popularity": 20.002,
      "media_type": "person"
    },
    {
      "gender": 2,
      "known_for_department": "Acting",
      "name": "Jet Li",
      "adult": false,
      "known_for": [
        {
          "release_date": "2010-08-03",
          "popularity": 39.782,
          "adult": false,
          "backdrop_path": "/gDRlw7GoA0OoLvijXNCTTdtAtNX.jpg",
          "media_type": "movie",
          "genre_ids": [53.0, 12.0, 28.0],
          "id": 27578.0,
          "original_language": "en",
          "original_title": "The Expendables",
          "poster_path": "/tDynwDj3pvexrEQ8wb0uy8EdcGQ.jpg",
          "vote_count": 6036.0,
          "video": false,
          "vote_average": 6.2,
          "title": "The Expendables",
          "overview": "Barney Ross leads a band of highly skilled mercenaries including knife enthusiast Lee Christmas, a martial arts expert, heavy weapons specialist, demolitionist, and a loose-cannon sniper. When the group is commissioned by the mysterious Mr. Church to assassinate the dictator of a small South American island, Barney and Lee visit the remote locale to scout out their opposition and discover the true nature of the conflict engulfing the city."
        },
        {
          "id": 76163.0,
          "popularity": 39.872,
          "adult": false,
          "backdrop_path": "/41QdmNKbwmVD7R6A7hMqMe9FYMy.jpg",
          "media_type": "movie",
          "genre_ids": [28.0, 12.0, 53.0],
          "release_date": "2012-08-08",
          "original_language": "en",
          "original_title": "The Expendables 2",
          "poster_path": "/5kdnOxTei0Cgbi6pryFPZoX9apS.jpg",
          "overview": "Mr. Church reunites the Expendables for what should be an easy paycheck, but when one of their men is murdered on the job, their quest for revenge puts them deep in enemy territory and up against an unexpected threat.",
          "video": false,
          "vote_average": 6.3,
          "title": "The Expendables 2",
          "vote_count": 5332.0
        },
        {
          "release_date": "2020-09-04",
          "popularity": 197.627,
          "adult": false,
          "backdrop_path": "/aoHiMjRt0Qs1dtkV61LyxTnQtJl.jpg",
          "media_type": "movie",
          "genre_ids": [12.0, 14.0],
          "overview": "When the Emperor of China issues a decree that one man per family must serve in the Imperial Chinese Army to defend the country from Huns, Hua Mulan, the eldest daughter of an honored warrior, steps in to take the place of her ailing father. She is spirited, determined and quick on her feet. Disguised as a man by the name of Hua Jun, she is tested every step of the way and must harness her innermost strength and embrace her true potential.",
          "original_language": "en",
          "original_title": "Mulan",
          "poster_path": "/aKx1ARwG55zZ0GpRvU2WrGrCG9o.jpg",
          "id": 337401.0,
          "video": false,
          "vote_average": 7.0,
          "title": "Mulan",
          "vote_count": 4992.0
        }
      ],
      "profile_path": "/7d4hgOzFW7CWPcE92eTSEFRSObC.jpg",
      "id": 1336,
      "popularity": 18.068,
      "media_type": "person"
    },
    {
      "name": "Tom Cruise",
      "adult": false,
      "gender": 2,
      "id": 500,
      "known_for_department": "Acting",
      "profile_path": "/8qBylBsQf4llkGrWR3qAsOtOU8O.jpg",
      "known_for": [
        {
          "original_title": "Edge of Tomorrow",
          "poster_path": "/uUHvlkLavotfGsNtosDy8ShsIYF.jpg",
          "video": false,
          "id": 137113.0,
          "media_type": "movie",
          "vote_count": 10809.0,
          "release_date": "2014-05-27",
          "popularity": 45.562,
          "overview": "Major Bill Cage is an officer who has never seen a day of combat when he is unceremoniously demoted and dropped into combat. Cage is killed within minutes, managing to take an alpha alien down with him. He awakens back at the beginning of the same day and is forced to fight and die again... and again - as physical contact with the alien has thrown him into a time loop.",
          "adult": false,
          "backdrop_path": "/auZIuHEUec5tBTns3tCRXfayxZq.jpg",
          "title": "Edge of Tomorrow",
          "genre_ids": [28.0, 878.0],
          "vote_average": 7.6,
          "original_language": "en"
        },
        {
          "original_title": "Oblivion",
          "poster_path": "/2ncs7hqBsEjFMqt6Y7ShBCO9tWs.jpg",
          "video": false,
          "id": 75612.0,
          "media_type": "movie",
          "vote_count": 8740.0,
          "release_date": "2013-04-10",
          "popularity": 24.712,
          "overview": "Jack Harper is one of the last few drone repairmen stationed on Earth.  Part of a massive operation to extract vital resources after decades of war with a terrifying threat known as the Scavs, Jack’s mission is nearly complete.  His existence is brought crashing down when he rescues a beautiful  stranger from a downed spacecraft.  Her arrival triggers a chain of events that  forces him to question everything he knows and puts the fate of humanity in his hands.",
          "adult": false,
          "backdrop_path": "/yvFtIWMvRS8PUbJOGpkSZk07CB3.jpg",
          "title": "Oblivion",
          "genre_ids": [28.0, 878.0, 12.0, 9648.0],
          "vote_average": 6.6,
          "original_language": "en"
        },
        {
          "original_title": "Mission: Impossible - Ghost Protocol",
          "poster_path": "/7GCKNRbzcA4rJXAKoE8KS9IDnZP.jpg",
          "video": false,
          "id": 56292.0,
          "media_type": "movie",
          "overview": "Ethan Hunt and his team are racing against time to track down a dangerous terrorist named Hendricks, who has gained access to Russian nuclear launch codes and is planning a strike on the United States. An attempt to stop him ends in an explosion causing severe destruction to the Kremlin and the IMF to be implicated in the bombing, forcing the President to disavow them. No longer being aided by the government, Ethan and his team chase Hendricks around the globe, although they might still be too late to stop a disaster.",
          "release_date": "2011-12-07",
          "popularity": 29.985,
          "vote_count": 7784.0,
          "adult": false,
          "backdrop_path": "/hqyjzDRCs1N5gEsh2gklzPdsEFD.jpg",
          "title": "Mission: Impossible - Ghost Protocol",
          "genre_ids": [28.0, 53.0, 12.0],
          "vote_average": 7.0,
          "original_language": "en"
        }
      ],
      "popularity": 20.145,
      "media_type": "person"
    },
    {
      "profile_path": "/6NsMbJXRlDZuDzatN2akFdGuTvx.jpg",
      "name": "Scarlett Johansson",
      "id": 1245,
      "adult": false,
      "known_for_department": "Acting",
      "gender": 1,
      "known_for": [
        {
          "original_language": "en",
          "original_title": "The Avengers",
          "poster_path": "/RYMX2wcKCBAr24UyPD7xwmjaTn.jpg",
          "title": "The Avengers",
          "video": false,
          "vote_average": 7.7,
          "id": 24428.0,
          "overview": "When an unexpected enemy emerges and threatens global safety and security, Nick Fury, director of the international peacekeeping agency known as S.H.I.E.L.D., finds himself in need of a team to pull the world back from the brink of disaster. Spanning the globe, a daring recruitment effort begins!",
          "release_date": "2012-04-25",
          "popularity": 147.714,
          "vote_count": 25080.0,
          "adult": false,
          "backdrop_path": "/nNmJRkg8wWnRmzQDe2FwKbPIsJV.jpg",
          "media_type": "movie",
          "genre_ids": [878.0, 28.0, 12.0]
        },
        {
          "original_language": "en",
          "original_title": "Avengers: Infinity War",
          "poster_path": "/7WsyChQLEftFiDOVTGkv3hFpyyt.jpg",
          "title": "Avengers: Infinity War",
          "video": false,
          "vote_average": 8.3,
          "vote_count": 22307.0,
          "overview": "As the Avengers and their allies have continued to protect the world from threats too large for any one hero to handle, a new danger has emerged from the cosmic shadows: Thanos. A despot of intergalactic infamy, his goal is to collect all six Infinity Stones, artifacts of unimaginable power, and use them to inflict his twisted will on all of reality. Everything the Avengers have fought for has led up to this moment - the fate of Earth and existence itself has never been more uncertain.",
          "release_date": "2018-04-25",
          "popularity": 257.742,
          "id": 299536.0,
          "adult": false,
          "backdrop_path": "/lmZFxXgJE3vgrciwuDib0N8CfQo.jpg",
          "media_type": "movie",
          "genre_ids": [12.0, 28.0, 878.0]
        },
        {
          "original_language": "en",
          "original_title": "Avengers: Endgame",
          "poster_path": "/or06FN3Dka5tukK1e9sl16pB3iy.jpg",
          "title": "Avengers: Endgame",
          "video": false,
          "vote_average": 8.3,
          "id": 299534.0,
          "vote_count": 18696.0,
          "release_date": "2019-04-24",
          "popularity": 236.988,
          "overview": "After the devastating events of Avengers: Infinity War, the universe is in ruins due to the efforts of the Mad Titan, Thanos. With the help of remaining allies, the Avengers must assemble once more in order to undo Thanos' actions and restore order to the universe once and for all, no matter what consequences may be in store.",
          "adult": false,
          "backdrop_path": "/7RyHsO4yDXtBv1zUU3mTpHeQ0d5.jpg",
          "media_type": "movie",
          "genre_ids": [12.0, 878.0, 28.0]
        }
      ],
      "popularity": 52.473,
      "media_type": "person"
    },
    {
      "adult": false,
      "gender": 2,
      "name": "Quentin Tarantino",
      "id": 138,
      "known_for": [
        {
          "poster_path": "/d5iIlFn5s0ImszYzBPb8JPIfbXD.jpg",
          "title": "Pulp Fiction",
          "vote_average": 8.5,
          "vote_count": 21490,
          "id": 680,
          "video": false,
          "adult": false,
          "backdrop_path": "/suaEOtk1N1sgg2MTM7oZd2cfVp3.jpg",
          "overview": "A burger-loving hit man, his philosophical partner, a drug-addled gangster's moll and a washed-up boxer converge in this sprawling, comedic crime caper. Their adventures unfurl in three stories that ingeniously trip back and forth in time.",
          "genre_ids": [53, 80],
          "release_date": "1994-09-10",
          "original_language": "en",
          "original_title": "Pulp Fiction",
          "popularity": 50.428,
          "media_type": "movie"
        },
        {
          "video": false,
          "vote_average": 8.1,
          "overview": "With the help of a German bounty hunter, a freed slave sets out to rescue his wife from a brutal Mississippi plantation owner.",
          "id": 68718,
          "title": "Django Unchained",
          "adult": false,
          "backdrop_path": "/2oZklIzUbvZXXzIFzv7Hi68d6xf.jpg",
          "vote_count": 20969,
          "genre_ids": [18, 37],
          "release_date": "2012-12-25",
          "original_language": "en",
          "original_title": "Django Unchained",
          "poster_path": "/7oWY8VDWW7thTzWh3OKYRkWUlD5.jpg",
          "popularity": 49.652,
          "media_type": "movie"
        },
        {
          "vote_count": 17196,
          "release_date": "2009-08-19",
          "adult": false,
          "backdrop_path": "/8pEnePgGyfUqj8Qa6d91OZQ6Aih.jpg",
          "genre_ids": [18, 28, 53, 10752],
          "title": "Inglourious Basterds",
          "overview": "In Nazi-occupied France during World War II, a group of Jewish-American soldiers known as \"The Basterds\" are chosen specifically to spread fear throughout the Third Reich by scalping and brutally killing Nazis. The Basterds, lead by Lt. Aldo Raine soon cross paths with a French-Jewish teenage girl who runs a movie theater in Paris which is targeted by the soldiers.",
          "original_title": "Inglourious Basterds",
          "poster_path": "/7sfbEnaARXDDhKm0CZ7D7uc2sbo.jpg",
          "video": false,
          "id": 16869,
          "vote_average": 8.2,
          "original_language": "en",
          "popularity": 38.107,
          "media_type": "movie"
        }
      ],
      "known_for_department": "Directing",
      "profile_path": "/1gjcpAa99FAOWGnrUvHEXXsRs7o.jpg",
      "popularity": 14.021,
      "media_type": "person"
    },
    {
      "adult": false,
      "gender": 2,
      "name": "Will Smith",
      "id": 2888,
      "known_for": [
        {
          "adult": false,
          "backdrop_path": "/dpoIQ9MN54cxuLZxDABEUOSFGY3.jpg",
          "genre_ids": [28, 12, 14],
          "original_language": "en",
          "original_title": "Suicide Squad",
          "poster_path": "/rbsm0i2q2uqlUSFgUAHq3xCUO4j.jpg",
          "video": false,
          "vote_average": 5.9,
          "vote_count": 17618,
          "overview": "From DC Comics comes the Suicide Squad, an antihero team of incarcerated supervillains who act as deniable assets for the United States government, undertaking high-risk black ops missions in exchange for commuted prison sentences.",
          "id": 297761,
          "title": "Suicide Squad",
          "release_date": "2016-08-03",
          "popularity": 176.857,
          "media_type": "movie"
        },
        {
          "poster_path": "/iPDkaSdKk2jRLTM65UOEoKtsIZ8.jpg",
          "video": false,
          "vote_average": 7.2,
          "overview": "Robert Neville is a scientist who was unable to stop the spread of the terrible virus that was incurable and man-made. Immune, Neville is now the last human survivor in what is left of New York City and perhaps the world. For three years, Neville has faithfully sent out daily radio messages, desperate to find any other survivors who might be out there. But he is not alone.",
          "release_date": "2007-12-12",
          "vote_count": 12360,
          "adult": false,
          "backdrop_path": "/xHWB9SdYRFV3nw1O0iL6GTedQQY.jpg",
          "title": "I Am Legend",
          "genre_ids": [18, 878, 53],
          "id": 6479,
          "original_language": "en",
          "original_title": "I Am Legend",
          "popularity": 50.383,
          "media_type": "movie"
        },
        {
          "video": false,
          "vote_average": 7.2,
          "vote_count": 10847,
          "id": 607,
          "title": "Men in Black",
          "backdrop_path": "/iEVZScwA2vy8BlVOFBBCfbU6XxB.jpg",
          "overview": "After a police chase with an otherworldly being, a New York City cop is recruited as an agent in a top-secret organization established to monitor and police alien activity on Earth: the Men in Black. Agent Kay and new recruit Agent Jay find themselves in the middle of a deadly plot by an intergalactic terrorist who has arrived on Earth to assassinate two ambassadors from opposing galaxies.",
          "genre_ids": [28, 12, 35, 878],
          "release_date": "1997-07-02",
          "original_language": "en",
          "adult": false,
          "poster_path": "/uLOmOF5IzWoyrgIF5MfUnh5pa1X.jpg",
          "original_title": "Men in Black",
          "popularity": 32.75,
          "media_type": "movie"
        }
      ],
      "known_for_department": "Acting",
      "profile_path": "/1QqaRZ8neYlqLx7ODZC4as47wUV.jpg",
      "popularity": 16.802,
      "media_type": "person"
    },
    {
      "adult": false,
      "gender": 2,
      "name": "Brad Pitt",
      "id": 287,
      "known_for": [
        {
          "original_title": "Fight Club",
          "poster_path": "/pB8BM7pdSp6B6Ih7QZ4DrQ3PmJK.jpg",
          "video": false,
          "vote_average": 8.4,
          "overview": "A ticking-time-bomb insomniac and a slippery soap salesman channel primal male aggression into a shocking new form of therapy. Their concept catches on, with underground \"fight clubs\" forming in every town, until an eccentric gets in the way and ignites an out-of-control spiral toward oblivion.",
          "release_date": "1999-10-15",
          "vote_count": 22054,
          "adult": false,
          "backdrop_path": "/rr7E0NoGKxvbkb89eR1GwfoYjpA.jpg",
          "id": 550,
          "genre_ids": [18],
          "title": "Fight Club",
          "original_language": "en",
          "popularity": 44.569,
          "media_type": "movie"
        },
        {
          "vote_count": 17128,
          "release_date": "2009-08-19",
          "adult": false,
          "backdrop_path": "/8pEnePgGyfUqj8Qa6d91OZQ6Aih.jpg",
          "genre_ids": [18, 28, 53, 10752],
          "title": "Inglourious Basterds",
          "overview": "In Nazi-occupied France during World War II, a group of Jewish-American soldiers known as \"The Basterds\" are chosen specifically to spread fear throughout the Third Reich by scalping and brutally killing Nazis. The Basterds, lead by Lt. Aldo Raine soon cross paths with a French-Jewish teenage girl who runs a movie theater in Paris which is targeted by the soldiers.",
          "original_title": "Inglourious Basterds",
          "poster_path": "/7sfbEnaARXDDhKm0CZ7D7uc2sbo.jpg",
          "video": false,
          "id": 16869,
          "vote_average": 8.2,
          "original_language": "en",
          "popularity": 31.89,
          "media_type": "movie"
        },
        {
          "video": false,
          "vote_average": 8.3,
          "overview": "Two homicide detectives are on a desperate hunt for a serial killer whose crimes are based on the \"seven deadly sins\" in this dark and haunting film that takes viewers from the tortured remains of one victim to the next. The seasoned Det. Sommerset researches each sin in an effort to get inside the killer's mind, while his novice partner, Mills, scoffs at his efforts to unravel the case.",
          "release_date": "1995-09-22",
          "title": "Se7en",
          "adult": false,
          "backdrop_path": "/4U4q1zjIwCZTNkp6RKWkWPuC7uI.jpg",
          "vote_count": 15408,
          "genre_ids": [80, 9648, 53],
          "id": 807,
          "original_language": "en",
          "original_title": "Se7en",
          "poster_path": "/69Sns8WoET6CfaYlIkHbla4l7nC.jpg",
          "popularity": 40.276,
          "media_type": "movie"
        }
      ],
      "known_for_department": "Acting",
      "profile_path": "/oTB9vGIBacH5aQNS0pUM74QSWuf.jpg",
      "popularity": 12.904,
      "media_type": "person"
    },
    {
      "name": "Jackie Chan",
      "gender": 2,
      "known_for": [
        {
          "overview": "When the Valley of Peace is threatened, lazy Po the panda discovers his destiny as the \"chosen one\" and trains to become a kung fu hero, but transforming the unsleek slacker into a brave warrior won't be easy. It's up to Master Shifu and the Furious Five -- Tigress, Crane, Mantis, Viper and Monkey -- to give it a try.",
          "release_date": "2008-06-04",
          "popularity": 62.381,
          "adult": false,
          "backdrop_path": "/qdthf9WrRDSaIkGVQGhhJ9pz1hn.jpg",
          "media_type": "movie",
          "genre_ids": [28.0, 12.0, 16.0, 10751.0, 35.0],
          "vote_count": 8596.0,
          "original_language": "en",
          "original_title": "Kung Fu Panda",
          "poster_path": "/wWt4JYXTg5Wr3xBW2phBrMKgp3x.jpg",
          "video": false,
          "id": 9502.0,
          "vote_average": 7.2,
          "title": "Kung Fu Panda"
        },
        {
          "overview": "Po is now living his dream as The Dragon Warrior, protecting the Valley of Peace alongside his friends and fellow kung fu masters, The Furious Five - Tigress, Crane, Mantis, Viper and Monkey. But Po’s new life of awesomeness is threatened by the emergence of a formidable villain, who plans to use a secret, unstoppable weapon to conquer China and destroy kung fu. It is up to Po and The Furious Five to journey across China to face this threat and vanquish it. But how can Po stop a weapon that can stop kung fu? He must look to his past and uncover the secrets of his mysterious origins; only then will he be able to unlock the strength he needs to succeed.",
          "release_date": "2011-05-25",
          "popularity": 51.715,
          "adult": false,
          "backdrop_path": "/iKJNE3QV0wEc9VMFuHYSZVhmSN9.jpg",
          "media_type": "movie",
          "genre_ids": [16.0, 10751.0],
          "id": 49444.0,
          "original_language": "en",
          "original_title": "Kung Fu Panda 2",
          "poster_path": "/mtqqD00vB4PGRt20gWtGqFhrkd0.jpg",
          "title": "Kung Fu Panda 2",
          "video": false,
          "vote_average": 6.9,
          "vote_count": 5110.0
        },
        {
          "overview": "Twelve-year-old Dre Parker could have been the most popular kid in Detroit, but his mother's latest career move has landed him in China. Dre immediately falls for his classmate Mei Ying but the cultural differences make such a friendship impossible. Even worse, Dre's feelings make him an enemy of the class bully, Cheng. With no friends in a strange land, Dre has nowhere to turn but maintenance man Mr. Han, who is a kung fu master. As Han teaches Dre that kung fu is not about punches and parries, but maturity and calm, Dre realizes that facing down the bullies will be the fight of his life.",
          "release_date": "2010-06-10",
          "popularity": 43.483,
          "adult": false,
          "backdrop_path": "/y2Cl2LBYaabgtSLlOa4VqnOiNin.jpg",
          "media_type": "movie",
          "genre_ids": [28.0, 12.0, 18.0, 10751.0],
          "id": 38575.0,
          "original_language": "en",
          "original_title": "The Karate Kid",
          "poster_path": "/tAMQREOoztvluqrfHiGHFVfB04B.jpg",
          "vote_count": 4529.0,
          "title": "The Karate Kid",
          "vote_average": 6.5,
          "video": false
        }
      ],
      "adult": false,
      "id": 18897,
      "profile_path": "/nraZoTzwJQPHspAVsKfgl3RXKKa.jpg",
      "known_for_department": "Acting",
      "popularity": 17.383,
      "media_type": "person"
    },
    {
      "adult": false,
      "gender": 2,
      "name": "Bruce Willis",
      "id": 62,
      "known_for": [
        {
          "poster_path": "/d5iIlFn5s0ImszYzBPb8JPIfbXD.jpg",
          "title": "Pulp Fiction",
          "vote_average": 8.5,
          "vote_count": 21490,
          "id": 680,
          "video": false,
          "adult": false,
          "backdrop_path": "/suaEOtk1N1sgg2MTM7oZd2cfVp3.jpg",
          "overview": "A burger-loving hit man, his philosophical partner, a drug-addled gangster's moll and a washed-up boxer converge in this sprawling, comedic crime caper. Their adventures unfurl in three stories that ingeniously trip back and forth in time.",
          "genre_ids": [53, 80],
          "release_date": "1994-09-10",
          "original_language": "en",
          "original_title": "Pulp Fiction",
          "popularity": 50.428,
          "media_type": "movie"
        },
        {
          "video": false,
          "vote_average": 7.3,
          "overview": "Though Kevin has evidenced 23 personalities to his trusted psychiatrist, Dr. Fletcher, there remains one still submerged who is set to materialize and dominate all the others. Compelled to abduct three teenage girls led by the willful, observant Casey, Kevin reaches a war for survival among all of those contained within him — as well as everyone around him — as the walls between his compartments shatter apart.",
          "id": 381288,
          "title": "Split",
          "adult": false,
          "backdrop_path": "/9pkZesKMnblFfKxEhQx45YQ2kIe.jpg",
          "vote_count": 14058,
          "genre_ids": [27, 53],
          "release_date": "2016-11-15",
          "original_language": "en",
          "original_title": "Split",
          "poster_path": "/lli31lYTFpvxVBeFHWoe5PMfW5s.jpg",
          "popularity": 94.1,
          "media_type": "movie"
        },
        {
          "video": false,
          "title": "The Sixth Sense",
          "overview": "Following an unexpected tragedy, a child psychologist named Malcolm Crowe meets an eight year old boy named Cole Sear, who is hiding a dark secret.",
          "id": 745,
          "adult": false,
          "backdrop_path": "/6TjllWT3cGrPFyqDXurVZ3L8bBi.jpg",
          "vote_count": 8739,
          "genre_ids": [9648, 53, 18],
          "vote_average": 7.9,
          "original_language": "en",
          "original_title": "The Sixth Sense",
          "poster_path": "/fIssD3w3SvIhPPmVo4WMgZDVLID.jpg",
          "release_date": "1999-08-06",
          "popularity": 28.678,
          "media_type": "movie"
        }
      ],
      "known_for_department": "Acting",
      "profile_path": "/caX3KtMU42EP3VLRFFBwqIIrch5.jpg",
      "popularity": 18.589,
      "media_type": "person"
    },
    {
      "adult": false,
      "gender": 2,
      "name": "Leonardo DiCaprio",
      "id": 6193,
      "known_for": [
        {
          "id": 27205,
          "video": false,
          "vote_average": 8.3,
          "overview": "Cobb, a skilled thief who commits corporate espionage by infiltrating the subconscious of his targets is offered a chance to regain his old life as payment for a task considered to be impossible: \"inception\", the implantation of another person's idea into a target's subconscious.",
          "release_date": "2010-07-15",
          "title": "Inception",
          "adult": false,
          "backdrop_path": "/ii8QGacT3MXESqBckQlyrATY0lT.jpg",
          "genre_ids": [28, 878, 12],
          "vote_count": 29502,
          "original_language": "en",
          "original_title": "Inception",
          "poster_path": "/9gk7adHYeDvHkCSEqAvQNLV5Uge.jpg",
          "popularity": 53.36,
          "media_type": "movie"
        },
        {
          "video": false,
          "vote_average": 8.1,
          "overview": "With the help of a German bounty hunter, a freed slave sets out to rescue his wife from a brutal Mississippi plantation owner.",
          "id": 68718,
          "title": "Django Unchained",
          "adult": false,
          "backdrop_path": "/2oZklIzUbvZXXzIFzv7Hi68d6xf.jpg",
          "vote_count": 20944,
          "genre_ids": [18, 37],
          "release_date": "2012-12-25",
          "original_language": "en",
          "original_title": "Django Unchained",
          "poster_path": "/7oWY8VDWW7thTzWh3OKYRkWUlD5.jpg",
          "popularity": 37.994,
          "media_type": "movie"
        },
        {
          "vote_count": 19505,
          "release_date": "1997-11-18",
          "adult": false,
          "backdrop_path": "/6VmFqApQRyZZzmiGOQq2C92jyvH.jpg",
          "genre_ids": [18, 10749],
          "title": "Titanic",
          "overview": "101-year-old Rose DeWitt Bukater tells the story of her life aboard the Titanic, 84 years later. A young Rose boards the ship with her mother and fiancé. Meanwhile, Jack Dawson and Fabrizio De Rossi win third-class tickets aboard the ship. Rose tells the whole story from Titanic's departure through to its death—on its first and last voyage—on April 15, 1912.",
          "original_title": "Titanic",
          "poster_path": "/9xjZS2rlVxm8SFx8kPC3aIGCOYQ.jpg",
          "video": false,
          "id": 597,
          "vote_average": 7.9,
          "original_language": "en",
          "popularity": 86.849,
          "media_type": "movie"
        }
      ],
      "known_for_department": "Acting",
      "profile_path": "/wo2hJpn04vbtmh0B9utCFdsQhxM.jpg",
      "popularity": 26.275,
      "media_type": "person"
    },
    {
      "known_for_department": "Acting",
      "profile_path": "/qAHXPJ4IybMsCbNY3811CytFj3H.jpg",
      "name": "Jean-Claude Van Damme",
      "gender": 2,
      "adult": false,
      "id": 15111,
      "known_for": [
        {
          "video": false,
          "vote_average": 6.3,
          "popularity": 38.399,
          "vote_count": 5334.0,
          "media_type": "movie",
          "id": 76163.0,
          "release_date": "2012-08-08",
          "backdrop_path": "/41QdmNKbwmVD7R6A7hMqMe9FYMy.jpg",
          "overview": "Mr. Church reunites the Expendables for what should be an easy paycheck, but when one of their men is murdered on the job, their quest for revenge puts them deep in enemy territory and up against an unexpected threat.",
          "genre_ids": [28.0, 12.0, 53.0],
          "title": "The Expendables 2",
          "original_language": "en",
          "adult": false,
          "poster_path": "/5kdnOxTei0Cgbi6pryFPZoX9apS.jpg",
          "original_title": "The Expendables 2"
        },
        {
          "video": false,
          "vote_average": 6.9,
          "popularity": 51.715,
          "vote_count": 5110.0,
          "media_type": "movie",
          "id": 49444.0,
          "genre_ids": [16.0, 10751.0],
          "backdrop_path": "/iKJNE3QV0wEc9VMFuHYSZVhmSN9.jpg",
          "overview": "Po is now living his dream as The Dragon Warrior, protecting the Valley of Peace alongside his friends and fellow kung fu masters, The Furious Five - Tigress, Crane, Mantis, Viper and Monkey. But Po’s new life of awesomeness is threatened by the emergence of a formidable villain, who plans to use a secret, unstoppable weapon to conquer China and destroy kung fu. It is up to Po and The Furious Five to journey across China to face this threat and vanquish it. But how can Po stop a weapon that can stop kung fu? He must look to his past and uncover the secrets of his mysterious origins; only then will he be able to unlock the strength he needs to succeed.",
          "release_date": "2011-05-25",
          "adult": false,
          "original_language": "en",
          "original_title": "Kung Fu Panda 2",
          "poster_path": "/mtqqD00vB4PGRt20gWtGqFhrkd0.jpg",
          "title": "Kung Fu Panda 2"
        },
        {
          "vote_average": 8.4,
          "popularity": 205.146,
          "vote_count": 4832.0,
          "media_type": "tv",
          "id": 1668.0,
          "original_language": "en",
          "backdrop_path": "/l0qVZIpXtIo7km9u5Yqh0nKPOr5.jpg",
          "overview": "The misadventures of a group of friends as they navigate the pitfalls of work, life and love in Manhattan.",
          "first_air_date": "1994-09-22",
          "original_name": "Friends",
          "origin_country": ["US"],
          "genre_ids": [35.0, 18.0],
          "poster_path": "/f496cm9enuEsZkSPzCwnTESEK5s.jpg",
          "name": "Friends"
        }
      ],
      "popularity": 21.966,
      "media_type": "person"
    },
    {
      "profile_path": "/tOhFWjauKvJgjCVLJFnhbBCZuxZ.jpg",
      "name": "M. Night Shyamalan",
      "known_for": [
        {
          "video": false,
          "vote_average": 7.3,
          "id": 381288.0,
          "overview": "Though Kevin has evidenced 23 personalities to his trusted psychiatrist, Dr. Fletcher, there remains one still submerged who is set to materialize and dominate all the others. Compelled to abduct three teenage girls led by the willful, observant Casey, Kevin reaches a war for survival among all of those contained within him — as well as everyone around him — as the walls between his compartments shatter apart.",
          "release_date": "2016-11-15",
          "popularity": 67.214,
          "adult": false,
          "backdrop_path": "/9pkZesKMnblFfKxEhQx45YQ2kIe.jpg",
          "media_type": "movie",
          "genre_ids": [27.0, 53.0],
          "title": "Split",
          "original_language": "en",
          "original_title": "Split",
          "poster_path": "/lli31lYTFpvxVBeFHWoe5PMfW5s.jpg",
          "vote_count": 14051.0
        },
        {
          "video": false,
          "vote_average": 7.9,
          "id": 745.0,
          "overview": "Following an unexpected tragedy, a child psychologist named Malcolm Crowe meets an eight year old boy named Cole Sear, who is hiding a dark secret.",
          "release_date": "1999-08-06",
          "popularity": 20.848,
          "adult": false,
          "backdrop_path": "/6TjllWT3cGrPFyqDXurVZ3L8bBi.jpg",
          "media_type": "movie",
          "genre_ids": [9648.0, 53.0, 18.0],
          "title": "The Sixth Sense",
          "original_language": "en",
          "original_title": "The Sixth Sense",
          "poster_path": "/fIssD3w3SvIhPPmVo4WMgZDVLID.jpg",
          "vote_count": 8735.0
        },
        {
          "video": false,
          "vote_average": 7.1,
          "id": 9741.0,
          "overview": "An ordinary man makes an extraordinary discovery when a train accident leaves his fellow passengers dead — and him unscathed. The answer to this mystery could lie with the mysterious Elijah Price, a man who suffers from a disease that renders his bones as fragile as glass.",
          "release_date": "2000-11-22",
          "popularity": 27.329,
          "adult": false,
          "backdrop_path": "/8uVmsuT0uJ9ywWwlQxZoa5PGeUn.jpg",
          "media_type": "movie",
          "genre_ids": [53.0, 18.0, 9648.0],
          "vote_count": 7201.0,
          "original_language": "en",
          "original_title": "Unbreakable",
          "poster_path": "/mLuehrGLiK5zFCyRmDDOH6gbfPf.jpg",
          "title": "Unbreakable"
        }
      ],
      "gender": 2,
      "known_for_department": "Writing",
      "id": 11614,
      "adult": false,
      "popularity": 10.983,
      "media_type": "person"
    },
    {
      "known_for": [
        {
          "vote_count": 2326.0,
          "release_date": "1954-04-26",
          "vote_average": 8.5,
          "adult": false,
          "backdrop_path": "/sJNNMCc6B7KZIY3LH3JMYJJNH5j.jpg",
          "media_type": "movie",
          "genre_ids": [28.0, 18.0],
          "id": 346.0,
          "original_language": "ja",
          "original_title": "七人の侍",
          "poster_path": "/8OKmBV5BUFzmozIC3pPWKHy17kx.jpg",
          "overview": "A samurai answers a village's request for protection after he falls on hard times. The town needs protection from bandits, so the samurai gathers six others to help him teach the people how to defend themselves, and the villagers provide the soldiers with food.",
          "video": false,
          "title": "Seven Samurai",
          "popularity": 18.648
        },
        {
          "overview": "Brimming with action while incisively examining the nature of truth, \"Rashomon\" is perhaps the finest film ever to investigate the philosophy of justice. Through an ingenious use of camera and flashbacks, Kurosawa reveals the complexities of human nature as four people recount different versions of the story of a man's murder and the rape of his wife.",
          "release_date": "1950-08-26",
          "id": 548.0,
          "adult": false,
          "backdrop_path": "/zyO6j74DKMWfp5snWg6Hwo0T3Mz.jpg",
          "media_type": "movie",
          "genre_ids": [80.0, 18.0, 9648.0],
          "title": "Rashomon",
          "original_language": "ja",
          "original_title": "羅生門",
          "poster_path": "/vL7Xw04nFMHwnvXRFCmYYAzMUvY.jpg",
          "vote_count": 1407.0,
          "video": false,
          "vote_average": 8.2,
          "popularity": 9.066
        },
        {
          "overview": "With Ran, legendary director Akira Kurosawa reimagines Shakespeare's King Lear as a singular historical epic set in sixteenth-century Japan. Majestic in scope, the film is Kurosawa's late-life masterpiece, a profound examination of the folly of war and the crumbling of one family under the weight of betrayal, greed, and the insatiable thirst for power.",
          "release_date": "1985-06-01",
          "vote_count": 980.0,
          "adult": false,
          "backdrop_path": "/gfR3GEClL7WrNpQOg8mcPhM8fx6.jpg",
          "media_type": "movie",
          "genre_ids": [28.0, 18.0, 36.0],
          "title": "Ran",
          "original_language": "ja",
          "original_title": "乱",
          "poster_path": "/jQnUtWaHYfqnXPOIf77K7Ycqk4M.jpg",
          "vote_average": 8.1,
          "video": false,
          "id": 11645.0,
          "popularity": 23.43
        }
      ],
      "profile_path": "/uCFWmYXu0EqF5Bd6zWaOS4FxvEB.jpg",
      "gender": 2,
      "adult": false,
      "known_for_department": "Directing",
      "id": 5026,
      "name": "Akira Kurosawa",
      "popularity": 8.845,
      "media_type": "person"
    },
    {
      "adult": false,
      "gender": 2,
      "name": "Clint Eastwood",
      "id": 190,
      "known_for": [
        {
          "overview": "U.S. Navy SEAL Chris Kyle takes his sole mission—protect his comrades—to heart and becomes one of the most lethal snipers in American history. His pinpoint accuracy not only saves countless lives but also makes him a prime target of insurgents. Despite grave danger and his struggle to be a good husband and father to his family back in the States, Kyle serves four tours of duty in Iraq. However, when he finally returns home, he finds that he cannot leave the war behind.",
          "release_date": "2014-12-11",
          "poster_path": "/i1U46OwMc6vlm7OoSUKfqUH615e.jpg",
          "id": 190859,
          "adult": false,
          "backdrop_path": "/8y8Ey2XssEl8EYCgnaMaV0AQAUJ.jpg",
          "genre_ids": [10752, 28],
          "vote_count": 10366,
          "original_language": "en",
          "original_title": "American Sniper",
          "vote_average": 7.4,
          "video": false,
          "title": "American Sniper",
          "popularity": 41.961,
          "media_type": "movie"
        },
        {
          "vote_count": 8263,
          "release_date": "2008-12-09",
          "adult": false,
          "backdrop_path": "/2t82UwR1OtqBrDkbMMQRiRpTyi8.jpg",
          "genre_ids": [18],
          "title": "Gran Torino",
          "overview": "Widower Walt Kowalski is a grumpy, prejudiced, tough-minded, unhappy, old, Korean War veteran who can't get along with either his kids or his neighbours. His prize possession is a 1972 Gran Torino he keeps in mint condition. When his neighbour, Thao—a young Hmong teenager under pressure from his gang member cousin—tries to steal his Gran Torino, Walt sets out to reform the youth and takes steps to protect Thao and his family from the gangs that infest their neighborhood.",
          "original_title": "Gran Torino",
          "poster_path": "/7DsR0kXmUC4UGXwKVpfL0UVvnyl.jpg",
          "video": false,
          "id": 13223,
          "vote_average": 8.0,
          "original_language": "en",
          "popularity": 18.498,
          "media_type": "movie"
        },
        {
          "release_date": "2004-12-15",
          "genre_ids": [18],
          "id": 70,
          "overview": "Despondent over a painful estrangement from his daughter, trainer Frankie Dunn isn't prepared for boxer Maggie Fitzgerald to enter his life. But Maggie's determined to go pro and to convince Dunn and his cohort to help her.",
          "original_title": "Million Dollar Baby",
          "poster_path": "/mVqE0CaURUkiIXzHPOLVbTjAXFy.jpg",
          "vote_average": 8.0,
          "adult": false,
          "backdrop_path": "/oGMomeS7bE43eN8SGJUaKvQnmud.jpg",
          "video": false,
          "vote_count": 7192,
          "title": "Million Dollar Baby",
          "original_language": "en",
          "popularity": 20.636,
          "media_type": "movie"
        }
      ],
      "known_for_department": "Acting",
      "profile_path": "/dU35NnjZ4aGw5abIJe3WXVf3Eey.jpg",
      "popularity": 18.462,
      "media_type": "person"
    },
    {
      "gender": 1,
      "id": 1622390,
      "adult": false,
      "name": "Lee Chae-dam",
      "known_for_department": "Acting",
      "profile_path": "/7wMyr6F3yzvbSpu2XMxSW3vObED.jpg",
      "known_for": [
        {
          "original_language": "ko",
          "original_title": "차이나타운",
          "id": 336744.0,
          "title": "Coin Locker Girl",
          "video": false,
          "vote_average": 6.9,
          "vote_count": 78.0,
          "release_date": "2015-04-29",
          "media_type": "movie",
          "poster_path": "/6675QSLeqcAjMxh74MQoqGuyWu3.jpg",
          "adult": false,
          "backdrop_path": "/ysqBclbYDbNJawQdOTjTwtB0tl9.jpg",
          "popularity": 5.722,
          "genre_ids": [18.0, 53.0],
          "overview": "A child abandoned in a subway coin locker is sold to a ruthless and calculating loan shark and gangster boss dubbed “Mother” (Kim Hye-soo), who runs an organ-harvesting ring in Incheon’s Chinatown. Named Il-Young (Kim Go-Eun), the baby girl grows into Mother’s loyal right-hand enforcer and is groomed to be her eventual successor. But when Il-Young’s loyalty to Mother wavers, the clash between the two unleashes a merciless tidal wave of blood-soaked retribution and strife."
        },
        {
          "original_language": "ko",
          "original_title": "리얼",
          "id": 437633.0,
          "title": "Real",
          "video": false,
          "vote_average": 5.1,
          "vote_count": 22.0,
          "release_date": "2017-06-28",
          "media_type": "movie",
          "poster_path": "/ccmDZaOKBwDKW8wPs4rV64ue9wN.jpg",
          "adult": false,
          "backdrop_path": "/f3860b3DZk3Q7GsBnajqJr59dPG.jpg",
          "popularity": 5.448,
          "genre_ids": [28.0, 80.0, 53.0],
          "overview": "Jang Tae-Young is a popular trouble shooter in the criminal world. He is cold and ambitious. He dreams of building a casino hotel one day. A reporter then goes to Jang Tae-Young."
        },
        {
          "original_language": "ko",
          "original_title": "난폭한 기록",
          "id": 607836.0,
          "title": "Fist & Furious",
          "video": false,
          "vote_average": 7.9,
          "vote_count": 20.0,
          "release_date": "2019-07-11",
          "media_type": "movie",
          "poster_path": "/mAgcdhP400efTl7p4FhqF3PGNXT.jpg",
          "adult": false,
          "backdrop_path": "/dRynvJKs76eWuA5osY4sfJMOSq4.jpg",
          "popularity": 3.458,
          "genre_ids": [28.0, 80.0],
          "overview": "Looking for a new interesting story, VJ reporter Guk-hyun is fascinated with a story of a former detective Gi-man, living a life with a blade in his head for certain reason.  Guk-hyun convinces Gi-man to take him upon condition that he make a record of Gi-man's revenge on Tae-hwa, the head of drug cartel. While searching for Tae-hwa's whereabouts, they decide to head towards unknown Island where Tae-hwa is expected to be staying."
        }
      ],
      "popularity": 9.733,
      "media_type": "person"
    },
    {
      "adult": false,
      "gender": 2,
      "name": "Liam Neeson",
      "id": 3896,
      "known_for": [
        {
          "original_title": "The Dark Knight Rises",
          "poster_path": "/vzvKcPQ4o7TjWeGIn0aGC9FeVNu.jpg",
          "video": false,
          "overview": "Following the death of District Attorney Harvey Dent, Batman assumes responsibility for Dent's crimes to protect the late attorney's reputation and is subsequently hunted by the Gotham City Police Department. Eight years later, Batman encounters the mysterious Selina Kyle and the villainous Bane, a new terrorist leader who overwhelms Gotham's finest. The Dark Knight resurfaces to protect a city that has branded him an enemy.",
          "release_date": "2012-07-16",
          "vote_count": 18088,
          "adult": false,
          "vote_average": 7.8,
          "backdrop_path": "/cKPfiu9IcCW0fMdKdQBXe3PRtTZ.jpg",
          "title": "The Dark Knight Rises",
          "genre_ids": [28, 80, 18, 53],
          "id": 49026,
          "original_language": "en",
          "popularity": 39.56,
          "media_type": "movie"
        },
        {
          "vote_count": 16397,
          "id": 272,
          "video": false,
          "overview": "Driven by tragedy, billionaire Bruce Wayne dedicates his life to uncovering and defeating the corruption that plagues his home, Gotham City.  Unable to work within the system, he instead creates a new identity, a symbol of fear for the criminal underworld - The Batman.",
          "release_date": "2005-06-10",
          "backdrop_path": "/lh5lbisD4oDbEKgUxoRaZU8HVrk.jpg",
          "original_language": "en",
          "adult": false,
          "poster_path": "/1P3ZyEq02wcTMd3iE4ebtLvncvH.jpg",
          "original_title": "Batman Begins",
          "genre_ids": [28, 80, 18],
          "vote_average": 7.7,
          "title": "Batman Begins",
          "popularity": 44.834,
          "media_type": "movie"
        },
        {
          "original_language": "en",
          "original_title": "Schindler's List",
          "poster_path": "/sF1U4EUQS8YHUYjNl3pMGNIQyr0.jpg",
          "video": false,
          "vote_average": 8.6,
          "overview": "The true story of how businessman Oskar Schindler saved over a thousand Jewish lives from the Nazis while they worked as slaves in his factory during World War II.",
          "id": 424,
          "vote_count": 11611,
          "adult": false,
          "backdrop_path": "/loRmRzQXZeqG78TqZuyvSlEQfZb.jpg",
          "title": "Schindler's List",
          "genre_ids": [18, 36, 10752],
          "release_date": "1993-11-30",
          "popularity": 29.792,
          "media_type": "movie"
        }
      ],
      "known_for_department": "Acting",
      "profile_path": "/bboldwqSC6tdw2iL6631c98l2Mn.jpg",
      "popularity": 17.268,
      "media_type": "person"
    }
  ],
  "total_pages": 1000,
  "total_results": 20000
}
